-- Merging decision tree log ---
manifest
ADDED from D:\Work\RZD_NRF_Sensors\rzd_ppru_updater\android\app\src\main\AndroidManifest.xml:1:1-49:12
INJECTED from D:\Work\RZD_NRF_Sensors\rzd_ppru_updater\android\app\src\main\AndroidManifest.xml:1:1-49:12
INJECTED from D:\Work\RZD_NRF_Sensors\rzd_ppru_updater\android\app\src\main\AndroidManifest.xml:1:1-49:12
INJECTED from D:\Work\RZD_NRF_Sensors\rzd_ppru_updater\android\app\src\main\AndroidManifest.xml:1:1-49:12
MERGED from [:reactive_ble_mobile] D:\Work\RZD_NRF_Sensors\rzd_ppru_updater\build\reactive_ble_mobile\intermediates\library_manifest\release\AndroidManifest.xml:2:1-33:12
MERGED from [:file_picker] D:\Work\RZD_NRF_Sensors\rzd_ppru_updater\build\file_picker\intermediates\library_manifest\release\AndroidManifest.xml:2:1-17:12
MERGED from [:flutter_plugin_android_lifecycle] D:\Work\RZD_NRF_Sensors\rzd_ppru_updater\build\flutter_plugin_android_lifecycle\intermediates\library_manifest\release\AndroidManifest.xml:2:1-7:12
MERGED from [:permission_handler] D:\Work\RZD_NRF_Sensors\rzd_ppru_updater\build\permission_handler\intermediates\library_manifest\release\AndroidManifest.xml:2:1-7:12
MERGED from [:android_intent] D:\Work\RZD_NRF_Sensors\rzd_ppru_updater\build\android_intent\intermediates\library_manifest\release\AndroidManifest.xml:2:1-7:12
MERGED from [com.polidea.rxandroidble2:rxandroidble:1.13.0] C:\Users\user\.gradle\caches\transforms-2\files-2.1\158aba7125db43c2f5167fdd9ebb3b5a\jetified-rxandroidble-1.13.0\AndroidManifest.xml:2:1-25:12
MERGED from [io.reactivex.rxjava2:rxandroid:2.1.1] C:\Users\user\.gradle\caches\transforms-2\files-2.1\01ac639a992dc71b5ef98fe94bb33352\jetified-rxandroid-2.1.1\AndroidManifest.xml:15:1-20:12
MERGED from [androidx.fragment:fragment:1.1.0] C:\Users\user\.gradle\caches\transforms-2\files-2.1\ba80674a1a5fdce2b1b29eea5683af77\fragment-1.1.0\AndroidManifest.xml:17:1-24:12
MERGED from [androidx.viewpager:viewpager:1.0.0] C:\Users\user\.gradle\caches\transforms-2\files-2.1\2f70304b103eacfab05dbe55739e869f\viewpager-1.0.0\AndroidManifest.xml:17:1-22:12
MERGED from [androidx.loader:loader:1.0.0] C:\Users\user\.gradle\caches\transforms-2\files-2.1\49dee3543bc65746b6bba9f83aa0b18a\loader-1.0.0\AndroidManifest.xml:17:1-22:12
MERGED from [androidx.activity:activity:1.0.0] C:\Users\user\.gradle\caches\transforms-2\files-2.1\68865d38a53fb5c240061f062e474515\jetified-activity-1.0.0\AndroidManifest.xml:17:1-24:12
MERGED from [androidx.customview:customview:1.0.0] C:\Users\user\.gradle\caches\transforms-2\files-2.1\86cf751735e9e9dd0416cce35c4a71a1\customview-1.0.0\AndroidManifest.xml:17:1-22:12
MERGED from [androidx.core:core:1.1.0] C:\Users\user\.gradle\caches\transforms-2\files-2.1\d67cd79abd1ca209502f51c69d23182b\core-1.1.0\AndroidManifest.xml:17:1-26:12
MERGED from [androidx.lifecycle:lifecycle-runtime:2.2.0] C:\Users\user\.gradle\caches\transforms-2\files-2.1\b37a656be7da34e79d326523a32fbcaa\lifecycle-runtime-2.2.0\AndroidManifest.xml:17:1-24:12
MERGED from [androidx.savedstate:savedstate:1.0.0] C:\Users\user\.gradle\caches\transforms-2\files-2.1\29e9e6ac99026fff5bb21139b2ad74ac\jetified-savedstate-1.0.0\AndroidManifest.xml:17:1-24:12
MERGED from [androidx.lifecycle:lifecycle-livedata:2.0.0] C:\Users\user\.gradle\caches\transforms-2\files-2.1\15faa7fdc535e832982b4615d300cb77\lifecycle-livedata-2.0.0\AndroidManifest.xml:17:1-22:12
MERGED from [androidx.lifecycle:lifecycle-livedata-core:2.0.0] C:\Users\user\.gradle\caches\transforms-2\files-2.1\033c1099bb4cd11be9138377da501d59\lifecycle-livedata-core-2.0.0\AndroidManifest.xml:17:1-22:12
MERGED from [androidx.arch.core:core-runtime:2.0.0] C:\Users\user\.gradle\caches\transforms-2\files-2.1\943631e3c5a6dfa67bece88add1d3fe3\core-runtime-2.0.0\AndroidManifest.xml:17:1-22:12
MERGED from [androidx.versionedparcelable:versionedparcelable:1.1.0] C:\Users\user\.gradle\caches\transforms-2\files-2.1\af9af86a2035b10a0514f89f66cf8a9a\versionedparcelable-1.1.0\AndroidManifest.xml:17:1-27:12
MERGED from [androidx.lifecycle:lifecycle-viewmodel:2.1.0] C:\Users\user\.gradle\caches\transforms-2\files-2.1\2b6a4e71d38d3b36d0c903aac26cfd25\lifecycle-viewmodel-2.1.0\AndroidManifest.xml:17:1-22:12
INJECTED from D:\Work\RZD_NRF_Sensors\rzd_ppru_updater\android\app\src\main\AndroidManifest.xml:1:1-49:12
INJECTED from D:\Work\RZD_NRF_Sensors\rzd_ppru_updater\android\app\src\main\AndroidManifest.xml:1:1-49:12
INJECTED from D:\Work\RZD_NRF_Sensors\rzd_ppru_updater\android\app\src\main\AndroidManifest.xml:1:1-49:12
	package
		ADDED from D:\Work\RZD_NRF_Sensors\rzd_ppru_updater\android\app\src\main\AndroidManifest.xml:2:5-44
		INJECTED from D:\Work\RZD_NRF_Sensors\rzd_ppru_updater\android\app\src\main\AndroidManifest.xml
		INJECTED from D:\Work\RZD_NRF_Sensors\rzd_ppru_updater\android\app\src\main\AndroidManifest.xml
	android:versionName
		INJECTED from D:\Work\RZD_NRF_Sensors\rzd_ppru_updater\android\app\src\main\AndroidManifest.xml
		ADDED from D:\Work\RZD_NRF_Sensors\rzd_ppru_updater\android\app\src\main\AndroidManifest.xml:1:1-49:12
		INJECTED from D:\Work\RZD_NRF_Sensors\rzd_ppru_updater\android\app\src\main\AndroidManifest.xml
	android:versionCode
		INJECTED from D:\Work\RZD_NRF_Sensors\rzd_ppru_updater\android\app\src\main\AndroidManifest.xml
		ADDED from D:\Work\RZD_NRF_Sensors\rzd_ppru_updater\android\app\src\main\AndroidManifest.xml:1:1-49:12
		INJECTED from D:\Work\RZD_NRF_Sensors\rzd_ppru_updater\android\app\src\main\AndroidManifest.xml
	xmlns:android
		ADDED from D:\Work\RZD_NRF_Sensors\rzd_ppru_updater\android\app\src\main\AndroidManifest.xml:1:11-69
uses-permission#android.permission.ACCESS_FINE_LOCATION
ADDED from D:\Work\RZD_NRF_Sensors\rzd_ppru_updater\android\app\src\main\AndroidManifest.xml:4:5-95
	android:name
		ADDED from D:\Work\RZD_NRF_Sensors\rzd_ppru_updater\android\app\src\main\AndroidManifest.xml:4:22-76
uses-permission#android.permission.BLUETOOTH
ADDED from D:\Work\RZD_NRF_Sensors\rzd_ppru_updater\android\app\src\main\AndroidManifest.xml:5:5-84
MERGED from [:reactive_ble_mobile] D:\Work\RZD_NRF_Sensors\rzd_ppru_updater\build\reactive_ble_mobile\intermediates\library_manifest\release\AndroidManifest.xml:10:5-12:38
MERGED from [:reactive_ble_mobile] D:\Work\RZD_NRF_Sensors\rzd_ppru_updater\build\reactive_ble_mobile\intermediates\library_manifest\release\AndroidManifest.xml:10:5-12:38
MERGED from [com.polidea.rxandroidble2:rxandroidble:1.13.0] C:\Users\user\.gradle\caches\transforms-2\files-2.1\158aba7125db43c2f5167fdd9ebb3b5a\jetified-rxandroidble-1.13.0\AndroidManifest.xml:9:5-11:38
MERGED from [com.polidea.rxandroidble2:rxandroidble:1.13.0] C:\Users\user\.gradle\caches\transforms-2\files-2.1\158aba7125db43c2f5167fdd9ebb3b5a\jetified-rxandroidble-1.13.0\AndroidManifest.xml:9:5-11:38
	android:maxSdkVersion
		ADDED from [:reactive_ble_mobile] D:\Work\RZD_NRF_Sensors\rzd_ppru_updater\build\reactive_ble_mobile\intermediates\library_manifest\release\AndroidManifest.xml:12:9-35
	android:name
		ADDED from D:\Work\RZD_NRF_Sensors\rzd_ppru_updater\android\app\src\main\AndroidManifest.xml:5:22-65
uses-permission#android.permission.BLUETOOTH_ADMIN
ADDED from D:\Work\RZD_NRF_Sensors\rzd_ppru_updater\android\app\src\main\AndroidManifest.xml:6:5-90
MERGED from [:reactive_ble_mobile] D:\Work\RZD_NRF_Sensors\rzd_ppru_updater\build\reactive_ble_mobile\intermediates\library_manifest\release\AndroidManifest.xml:13:5-15:38
MERGED from [:reactive_ble_mobile] D:\Work\RZD_NRF_Sensors\rzd_ppru_updater\build\reactive_ble_mobile\intermediates\library_manifest\release\AndroidManifest.xml:13:5-15:38
MERGED from [com.polidea.rxandroidble2:rxandroidble:1.13.0] C:\Users\user\.gradle\caches\transforms-2\files-2.1\158aba7125db43c2f5167fdd9ebb3b5a\jetified-rxandroidble-1.13.0\AndroidManifest.xml:12:5-14:38
MERGED from [com.polidea.rxandroidble2:rxandroidble:1.13.0] C:\Users\user\.gradle\caches\transforms-2\files-2.1\158aba7125db43c2f5167fdd9ebb3b5a\jetified-rxandroidble-1.13.0\AndroidManifest.xml:12:5-14:38
	android:maxSdkVersion
		ADDED from [:reactive_ble_mobile] D:\Work\RZD_NRF_Sensors\rzd_ppru_updater\build\reactive_ble_mobile\intermediates\library_manifest\release\AndroidManifest.xml:15:9-35
	android:name
		ADDED from D:\Work\RZD_NRF_Sensors\rzd_ppru_updater\android\app\src\main\AndroidManifest.xml:6:22-71
uses-permission#android.permission.MANAGE_EXTERNAL_STORAGE
ADDED from D:\Work\RZD_NRF_Sensors\rzd_ppru_updater\android\app\src\main\AndroidManifest.xml:7:5-98
	android:name
		ADDED from D:\Work\RZD_NRF_Sensors\rzd_ppru_updater\android\app\src\main\AndroidManifest.xml:7:22-79
uses-permission#android.permission.READ_EXTERNAL_STORAGE
ADDED from D:\Work\RZD_NRF_Sensors\rzd_ppru_updater\android\app\src\main\AndroidManifest.xml:8:5-96
MERGED from [:file_picker] D:\Work\RZD_NRF_Sensors\rzd_ppru_updater\build\file_picker\intermediates\library_manifest\release\AndroidManifest.xml:7:5-80
MERGED from [:file_picker] D:\Work\RZD_NRF_Sensors\rzd_ppru_updater\build\file_picker\intermediates\library_manifest\release\AndroidManifest.xml:7:5-80
	android:name
		ADDED from D:\Work\RZD_NRF_Sensors\rzd_ppru_updater\android\app\src\main\AndroidManifest.xml:8:22-77
application
ADDED from D:\Work\RZD_NRF_Sensors\rzd_ppru_updater\android\app\src\main\AndroidManifest.xml:10:4-48:19
MERGED from [androidx.core:core:1.1.0] C:\Users\user\.gradle\caches\transforms-2\files-2.1\d67cd79abd1ca209502f51c69d23182b\core-1.1.0\AndroidManifest.xml:24:5-89
MERGED from [androidx.core:core:1.1.0] C:\Users\user\.gradle\caches\transforms-2\files-2.1\d67cd79abd1ca209502f51c69d23182b\core-1.1.0\AndroidManifest.xml:24:5-89
MERGED from [androidx.versionedparcelable:versionedparcelable:1.1.0] C:\Users\user\.gradle\caches\transforms-2\files-2.1\af9af86a2035b10a0514f89f66cf8a9a\versionedparcelable-1.1.0\AndroidManifest.xml:24:5-25:19
MERGED from [androidx.versionedparcelable:versionedparcelable:1.1.0] C:\Users\user\.gradle\caches\transforms-2\files-2.1\af9af86a2035b10a0514f89f66cf8a9a\versionedparcelable-1.1.0\AndroidManifest.xml:24:5-25:19
	android:appComponentFactory
		ADDED from [androidx.core:core:1.1.0] C:\Users\user\.gradle\caches\transforms-2\files-2.1\d67cd79abd1ca209502f51c69d23182b\core-1.1.0\AndroidManifest.xml:24:18-86
	android:label
		ADDED from D:\Work\RZD_NRF_Sensors\rzd_ppru_updater\android\app\src\main\AndroidManifest.xml:11:9-39
	android:icon
		ADDED from D:\Work\RZD_NRF_Sensors\rzd_ppru_updater\android\app\src\main\AndroidManifest.xml:12:9-45
activity#com.mclaught.rzd_ppru_updater.MainActivity
ADDED from D:\Work\RZD_NRF_Sensors\rzd_ppru_updater\android\app\src\main\AndroidManifest.xml:14:9-42:20
	android:launchMode
		ADDED from D:\Work\RZD_NRF_Sensors\rzd_ppru_updater\android\app\src\main\AndroidManifest.xml:16:13-43
	android:hardwareAccelerated
		ADDED from D:\Work\RZD_NRF_Sensors\rzd_ppru_updater\android\app\src\main\AndroidManifest.xml:19:13-47
	android:windowSoftInputMode
		ADDED from D:\Work\RZD_NRF_Sensors\rzd_ppru_updater\android\app\src\main\AndroidManifest.xml:20:13-55
	android:configChanges
		ADDED from D:\Work\RZD_NRF_Sensors\rzd_ppru_updater\android\app\src\main\AndroidManifest.xml:18:13-163
	android:theme
		ADDED from D:\Work\RZD_NRF_Sensors\rzd_ppru_updater\android\app\src\main\AndroidManifest.xml:17:13-47
	android:name
		ADDED from D:\Work\RZD_NRF_Sensors\rzd_ppru_updater\android\app\src\main\AndroidManifest.xml:15:13-41
meta-data#io.flutter.embedding.android.NormalTheme
ADDED from D:\Work\RZD_NRF_Sensors\rzd_ppru_updater\android\app\src\main\AndroidManifest.xml:25:13-28:17
	android:resource
		ADDED from D:\Work\RZD_NRF_Sensors\rzd_ppru_updater\android\app\src\main\AndroidManifest.xml:27:15-52
	android:name
		ADDED from D:\Work\RZD_NRF_Sensors\rzd_ppru_updater\android\app\src\main\AndroidManifest.xml:26:15-70
intent-filter#action:name:android.intent.action.MAIN+category:name:android.intent.category.LAUNCHER
ADDED from D:\Work\RZD_NRF_Sensors\rzd_ppru_updater\android\app\src\main\AndroidManifest.xml:38:13-41:29
action#android.intent.action.MAIN
ADDED from D:\Work\RZD_NRF_Sensors\rzd_ppru_updater\android\app\src\main\AndroidManifest.xml:39:17-68
	android:name
		ADDED from D:\Work\RZD_NRF_Sensors\rzd_ppru_updater\android\app\src\main\AndroidManifest.xml:39:25-66
category#android.intent.category.LAUNCHER
ADDED from D:\Work\RZD_NRF_Sensors\rzd_ppru_updater\android\app\src\main\AndroidManifest.xml:40:17-76
	android:name
		ADDED from D:\Work\RZD_NRF_Sensors\rzd_ppru_updater\android\app\src\main\AndroidManifest.xml:40:27-74
meta-data#flutterEmbedding
ADDED from D:\Work\RZD_NRF_Sensors\rzd_ppru_updater\android\app\src\main\AndroidManifest.xml:45:9-47:33
	android:value
		ADDED from D:\Work\RZD_NRF_Sensors\rzd_ppru_updater\android\app\src\main\AndroidManifest.xml:47:13-30
	android:name
		ADDED from D:\Work\RZD_NRF_Sensors\rzd_ppru_updater\android\app\src\main\AndroidManifest.xml:46:13-44
uses-sdk
INJECTED from D:\Work\RZD_NRF_Sensors\rzd_ppru_updater\android\app\src\main\AndroidManifest.xml reason: use-sdk injection requested
INJECTED from D:\Work\RZD_NRF_Sensors\rzd_ppru_updater\android\app\src\main\AndroidManifest.xml
INJECTED from D:\Work\RZD_NRF_Sensors\rzd_ppru_updater\android\app\src\main\AndroidManifest.xml
MERGED from [:reactive_ble_mobile] D:\Work\RZD_NRF_Sensors\rzd_ppru_updater\build\reactive_ble_mobile\intermediates\library_manifest\release\AndroidManifest.xml:5:5-7:41
MERGED from [:reactive_ble_mobile] D:\Work\RZD_NRF_Sensors\rzd_ppru_updater\build\reactive_ble_mobile\intermediates\library_manifest\release\AndroidManifest.xml:5:5-7:41
MERGED from [:file_picker] D:\Work\RZD_NRF_Sensors\rzd_ppru_updater\build\file_picker\intermediates\library_manifest\release\AndroidManifest.xml:5:5-44
MERGED from [:file_picker] D:\Work\RZD_NRF_Sensors\rzd_ppru_updater\build\file_picker\intermediates\library_manifest\release\AndroidManifest.xml:5:5-44
MERGED from [:flutter_plugin_android_lifecycle] D:\Work\RZD_NRF_Sensors\rzd_ppru_updater\build\flutter_plugin_android_lifecycle\intermediates\library_manifest\release\AndroidManifest.xml:5:5-44
MERGED from [:flutter_plugin_android_lifecycle] D:\Work\RZD_NRF_Sensors\rzd_ppru_updater\build\flutter_plugin_android_lifecycle\intermediates\library_manifest\release\AndroidManifest.xml:5:5-44
MERGED from [:permission_handler] D:\Work\RZD_NRF_Sensors\rzd_ppru_updater\build\permission_handler\intermediates\library_manifest\release\AndroidManifest.xml:5:5-44
MERGED from [:permission_handler] D:\Work\RZD_NRF_Sensors\rzd_ppru_updater\build\permission_handler\intermediates\library_manifest\release\AndroidManifest.xml:5:5-44
MERGED from [:android_intent] D:\Work\RZD_NRF_Sensors\rzd_ppru_updater\build\android_intent\intermediates\library_manifest\release\AndroidManifest.xml:5:5-44
MERGED from [:android_intent] D:\Work\RZD_NRF_Sensors\rzd_ppru_updater\build\android_intent\intermediates\library_manifest\release\AndroidManifest.xml:5:5-44
MERGED from [com.polidea.rxandroidble2:rxandroidble:1.13.0] C:\Users\user\.gradle\caches\transforms-2\files-2.1\158aba7125db43c2f5167fdd9ebb3b5a\jetified-rxandroidble-1.13.0\AndroidManifest.xml:5:5-7:41
MERGED from [com.polidea.rxandroidble2:rxandroidble:1.13.0] C:\Users\user\.gradle\caches\transforms-2\files-2.1\158aba7125db43c2f5167fdd9ebb3b5a\jetified-rxandroidble-1.13.0\AndroidManifest.xml:5:5-7:41
MERGED from [io.reactivex.rxjava2:rxandroid:2.1.1] C:\Users\user\.gradle\caches\transforms-2\files-2.1\01ac639a992dc71b5ef98fe94bb33352\jetified-rxandroid-2.1.1\AndroidManifest.xml:18:5-43
MERGED from [io.reactivex.rxjava2:rxandroid:2.1.1] C:\Users\user\.gradle\caches\transforms-2\files-2.1\01ac639a992dc71b5ef98fe94bb33352\jetified-rxandroid-2.1.1\AndroidManifest.xml:18:5-43
MERGED from [androidx.fragment:fragment:1.1.0] C:\Users\user\.gradle\caches\transforms-2\files-2.1\ba80674a1a5fdce2b1b29eea5683af77\fragment-1.1.0\AndroidManifest.xml:20:5-22:41
MERGED from [androidx.fragment:fragment:1.1.0] C:\Users\user\.gradle\caches\transforms-2\files-2.1\ba80674a1a5fdce2b1b29eea5683af77\fragment-1.1.0\AndroidManifest.xml:20:5-22:41
MERGED from [androidx.viewpager:viewpager:1.0.0] C:\Users\user\.gradle\caches\transforms-2\files-2.1\2f70304b103eacfab05dbe55739e869f\viewpager-1.0.0\AndroidManifest.xml:20:5-44
MERGED from [androidx.viewpager:viewpager:1.0.0] C:\Users\user\.gradle\caches\transforms-2\files-2.1\2f70304b103eacfab05dbe55739e869f\viewpager-1.0.0\AndroidManifest.xml:20:5-44
MERGED from [androidx.loader:loader:1.0.0] C:\Users\user\.gradle\caches\transforms-2\files-2.1\49dee3543bc65746b6bba9f83aa0b18a\loader-1.0.0\AndroidManifest.xml:20:5-44
MERGED from [androidx.loader:loader:1.0.0] C:\Users\user\.gradle\caches\transforms-2\files-2.1\49dee3543bc65746b6bba9f83aa0b18a\loader-1.0.0\AndroidManifest.xml:20:5-44
MERGED from [androidx.activity:activity:1.0.0] C:\Users\user\.gradle\caches\transforms-2\files-2.1\68865d38a53fb5c240061f062e474515\jetified-activity-1.0.0\AndroidManifest.xml:20:5-22:41
MERGED from [androidx.activity:activity:1.0.0] C:\Users\user\.gradle\caches\transforms-2\files-2.1\68865d38a53fb5c240061f062e474515\jetified-activity-1.0.0\AndroidManifest.xml:20:5-22:41
MERGED from [androidx.customview:customview:1.0.0] C:\Users\user\.gradle\caches\transforms-2\files-2.1\86cf751735e9e9dd0416cce35c4a71a1\customview-1.0.0\AndroidManifest.xml:20:5-44
MERGED from [androidx.customview:customview:1.0.0] C:\Users\user\.gradle\caches\transforms-2\files-2.1\86cf751735e9e9dd0416cce35c4a71a1\customview-1.0.0\AndroidManifest.xml:20:5-44
MERGED from [androidx.core:core:1.1.0] C:\Users\user\.gradle\caches\transforms-2\files-2.1\d67cd79abd1ca209502f51c69d23182b\core-1.1.0\AndroidManifest.xml:20:5-22:41
MERGED from [androidx.core:core:1.1.0] C:\Users\user\.gradle\caches\transforms-2\files-2.1\d67cd79abd1ca209502f51c69d23182b\core-1.1.0\AndroidManifest.xml:20:5-22:41
MERGED from [androidx.lifecycle:lifecycle-runtime:2.2.0] C:\Users\user\.gradle\caches\transforms-2\files-2.1\b37a656be7da34e79d326523a32fbcaa\lifecycle-runtime-2.2.0\AndroidManifest.xml:20:5-22:41
MERGED from [androidx.lifecycle:lifecycle-runtime:2.2.0] C:\Users\user\.gradle\caches\transforms-2\files-2.1\b37a656be7da34e79d326523a32fbcaa\lifecycle-runtime-2.2.0\AndroidManifest.xml:20:5-22:41
MERGED from [androidx.savedstate:savedstate:1.0.0] C:\Users\user\.gradle\caches\transforms-2\files-2.1\29e9e6ac99026fff5bb21139b2ad74ac\jetified-savedstate-1.0.0\AndroidManifest.xml:20:5-22:41
MERGED from [androidx.savedstate:savedstate:1.0.0] C:\Users\user\.gradle\caches\transforms-2\files-2.1\29e9e6ac99026fff5bb21139b2ad74ac\jetified-savedstate-1.0.0\AndroidManifest.xml:20:5-22:41
MERGED from [androidx.lifecycle:lifecycle-livedata:2.0.0] C:\Users\user\.gradle\caches\transforms-2\files-2.1\15faa7fdc535e832982b4615d300cb77\lifecycle-livedata-2.0.0\AndroidManifest.xml:20:5-44
MERGED from [androidx.lifecycle:lifecycle-livedata:2.0.0] C:\Users\user\.gradle\caches\transforms-2\files-2.1\15faa7fdc535e832982b4615d300cb77\lifecycle-livedata-2.0.0\AndroidManifest.xml:20:5-44
MERGED from [androidx.lifecycle:lifecycle-livedata-core:2.0.0] C:\Users\user\.gradle\caches\transforms-2\files-2.1\033c1099bb4cd11be9138377da501d59\lifecycle-livedata-core-2.0.0\AndroidManifest.xml:20:5-44
MERGED from [androidx.lifecycle:lifecycle-livedata-core:2.0.0] C:\Users\user\.gradle\caches\transforms-2\files-2.1\033c1099bb4cd11be9138377da501d59\lifecycle-livedata-core-2.0.0\AndroidManifest.xml:20:5-44
MERGED from [androidx.arch.core:core-runtime:2.0.0] C:\Users\user\.gradle\caches\transforms-2\files-2.1\943631e3c5a6dfa67bece88add1d3fe3\core-runtime-2.0.0\AndroidManifest.xml:20:5-44
MERGED from [androidx.arch.core:core-runtime:2.0.0] C:\Users\user\.gradle\caches\transforms-2\files-2.1\943631e3c5a6dfa67bece88add1d3fe3\core-runtime-2.0.0\AndroidManifest.xml:20:5-44
MERGED from [androidx.versionedparcelable:versionedparcelable:1.1.0] C:\Users\user\.gradle\caches\transforms-2\files-2.1\af9af86a2035b10a0514f89f66cf8a9a\versionedparcelable-1.1.0\AndroidManifest.xml:20:5-22:41
MERGED from [androidx.versionedparcelable:versionedparcelable:1.1.0] C:\Users\user\.gradle\caches\transforms-2\files-2.1\af9af86a2035b10a0514f89f66cf8a9a\versionedparcelable-1.1.0\AndroidManifest.xml:20:5-22:41
MERGED from [androidx.lifecycle:lifecycle-viewmodel:2.1.0] C:\Users\user\.gradle\caches\transforms-2\files-2.1\2b6a4e71d38d3b36d0c903aac26cfd25\lifecycle-viewmodel-2.1.0\AndroidManifest.xml:20:5-44
MERGED from [androidx.lifecycle:lifecycle-viewmodel:2.1.0] C:\Users\user\.gradle\caches\transforms-2\files-2.1\2b6a4e71d38d3b36d0c903aac26cfd25\lifecycle-viewmodel-2.1.0\AndroidManifest.xml:20:5-44
INJECTED from D:\Work\RZD_NRF_Sensors\rzd_ppru_updater\android\app\src\main\AndroidManifest.xml
INJECTED from D:\Work\RZD_NRF_Sensors\rzd_ppru_updater\android\app\src\main\AndroidManifest.xml
	android:targetSdkVersion
		INJECTED from D:\Work\RZD_NRF_Sensors\rzd_ppru_updater\android\app\src\main\AndroidManifest.xml
		ADDED from D:\Work\RZD_NRF_Sensors\rzd_ppru_updater\android\app\src\main\AndroidManifest.xml
		INJECTED from D:\Work\RZD_NRF_Sensors\rzd_ppru_updater\android\app\src\main\AndroidManifest.xml
	android:minSdkVersion
		INJECTED from D:\Work\RZD_NRF_Sensors\rzd_ppru_updater\android\app\src\main\AndroidManifest.xml
		ADDED from D:\Work\RZD_NRF_Sensors\rzd_ppru_updater\android\app\src\main\AndroidManifest.xml
		INJECTED from D:\Work\RZD_NRF_Sensors\rzd_ppru_updater\android\app\src\main\AndroidManifest.xml
uses-permission-sdk-23#android.permission.ACCESS_COARSE_LOCATION
ADDED from [:reactive_ble_mobile] D:\Work\RZD_NRF_Sensors\rzd_ppru_updater\build\reactive_ble_mobile\intermediates\library_manifest\release\AndroidManifest.xml:18:5-20:38
MERGED from [com.polidea.rxandroidble2:rxandroidble:1.13.0] C:\Users\user\.gradle\caches\transforms-2\files-2.1\158aba7125db43c2f5167fdd9ebb3b5a\jetified-rxandroidble-1.13.0\AndroidManifest.xml:17:5-88
MERGED from [com.polidea.rxandroidble2:rxandroidble:1.13.0] C:\Users\user\.gradle\caches\transforms-2\files-2.1\158aba7125db43c2f5167fdd9ebb3b5a\jetified-rxandroidble-1.13.0\AndroidManifest.xml:17:5-88
	android:maxSdkVersion
		ADDED from [:reactive_ble_mobile] D:\Work\RZD_NRF_Sensors\rzd_ppru_updater\build\reactive_ble_mobile\intermediates\library_manifest\release\AndroidManifest.xml:20:9-35
	android:name
		ADDED from [:reactive_ble_mobile] D:\Work\RZD_NRF_Sensors\rzd_ppru_updater\build\reactive_ble_mobile\intermediates\library_manifest\release\AndroidManifest.xml:19:9-65
uses-permission-sdk-23#android.permission.ACCESS_FINE_LOCATION
ADDED from [:reactive_ble_mobile] D:\Work\RZD_NRF_Sensors\rzd_ppru_updater\build\reactive_ble_mobile\intermediates\library_manifest\release\AndroidManifest.xml:21:5-23:38
MERGED from [com.polidea.rxandroidble2:rxandroidble:1.13.0] C:\Users\user\.gradle\caches\transforms-2\files-2.1\158aba7125db43c2f5167fdd9ebb3b5a\jetified-rxandroidble-1.13.0\AndroidManifest.xml:18:5-86
MERGED from [com.polidea.rxandroidble2:rxandroidble:1.13.0] C:\Users\user\.gradle\caches\transforms-2\files-2.1\158aba7125db43c2f5167fdd9ebb3b5a\jetified-rxandroidble-1.13.0\AndroidManifest.xml:18:5-86
	android:maxSdkVersion
		ADDED from [:reactive_ble_mobile] D:\Work\RZD_NRF_Sensors\rzd_ppru_updater\build\reactive_ble_mobile\intermediates\library_manifest\release\AndroidManifest.xml:23:9-35
	android:name
		ADDED from [:reactive_ble_mobile] D:\Work\RZD_NRF_Sensors\rzd_ppru_updater\build\reactive_ble_mobile\intermediates\library_manifest\release\AndroidManifest.xml:22:9-63
uses-permission#android.permission.BLUETOOTH_CONNECT
ADDED from [:reactive_ble_mobile] D:\Work\RZD_NRF_Sensors\rzd_ppru_updater\build\reactive_ble_mobile\intermediates\library_manifest\release\AndroidManifest.xml:26:5-76
MERGED from [com.polidea.rxandroidble2:rxandroidble:1.13.0] C:\Users\user\.gradle\caches\transforms-2\files-2.1\158aba7125db43c2f5167fdd9ebb3b5a\jetified-rxandroidble-1.13.0\AndroidManifest.xml:20:5-76
MERGED from [com.polidea.rxandroidble2:rxandroidble:1.13.0] C:\Users\user\.gradle\caches\transforms-2\files-2.1\158aba7125db43c2f5167fdd9ebb3b5a\jetified-rxandroidble-1.13.0\AndroidManifest.xml:20:5-76
	android:name
		ADDED from [:reactive_ble_mobile] D:\Work\RZD_NRF_Sensors\rzd_ppru_updater\build\reactive_ble_mobile\intermediates\library_manifest\release\AndroidManifest.xml:26:22-73
uses-permission#android.permission.BLUETOOTH_SCAN
ADDED from [:reactive_ble_mobile] D:\Work\RZD_NRF_Sensors\rzd_ppru_updater\build\reactive_ble_mobile\intermediates\library_manifest\release\AndroidManifest.xml:31:5-73
MERGED from [com.polidea.rxandroidble2:rxandroidble:1.13.0] C:\Users\user\.gradle\caches\transforms-2\files-2.1\158aba7125db43c2f5167fdd9ebb3b5a\jetified-rxandroidble-1.13.0\AndroidManifest.xml:21:5-23:58
MERGED from [com.polidea.rxandroidble2:rxandroidble:1.13.0] C:\Users\user\.gradle\caches\transforms-2\files-2.1\158aba7125db43c2f5167fdd9ebb3b5a\jetified-rxandroidble-1.13.0\AndroidManifest.xml:21:5-23:58
	android:usesPermissionFlags
		ADDED from [com.polidea.rxandroidble2:rxandroidble:1.13.0] C:\Users\user\.gradle\caches\transforms-2\files-2.1\158aba7125db43c2f5167fdd9ebb3b5a\jetified-rxandroidble-1.13.0\AndroidManifest.xml:23:9-55
	android:name
		ADDED from [:reactive_ble_mobile] D:\Work\RZD_NRF_Sensors\rzd_ppru_updater\build\reactive_ble_mobile\intermediates\library_manifest\release\AndroidManifest.xml:31:22-70
queries
ADDED from [:file_picker] D:\Work\RZD_NRF_Sensors\rzd_ppru_updater\build\file_picker\intermediates\library_manifest\release\AndroidManifest.xml:9:5-15:15
intent#action:name:android.intent.action.GET_CONTENT+data:mimeType:*/*
ADDED from [:file_picker] D:\Work\RZD_NRF_Sensors\rzd_ppru_updater\build\file_picker\intermediates\library_manifest\release\AndroidManifest.xml:10:9-14:18
action#android.intent.action.GET_CONTENT
ADDED from [:file_picker] D:\Work\RZD_NRF_Sensors\rzd_ppru_updater\build\file_picker\intermediates\library_manifest\release\AndroidManifest.xml:11:13-72
	android:name
		ADDED from [:file_picker] D:\Work\RZD_NRF_Sensors\rzd_ppru_updater\build\file_picker\intermediates\library_manifest\release\AndroidManifest.xml:11:21-69
data
ADDED from [:file_picker] D:\Work\RZD_NRF_Sensors\rzd_ppru_updater\build\file_picker\intermediates\library_manifest\release\AndroidManifest.xml:13:13-44
	android:mimeType
		ADDED from [:file_picker] D:\Work\RZD_NRF_Sensors\rzd_ppru_updater\build\file_picker\intermediates\library_manifest\release\AndroidManifest.xml:13:19-41
